---
http_interactions:
- request:
    method: get
    uri: https://api.flickr.com/services/rest/?api_key=<YOUR FLICKR API KEY HERE>&content_type=1&extras=url_o&format=json&lat=39.7392358&lon=-104.990251&method=flickr.photos.search&nojsoncallback=1&page=1&per_page=20&privacy_filter=public&tags=park
    body:
      encoding: US-ASCII
      string: ''
    headers:
      User-Agent:
      - Faraday v0.15.3
      Accept-Encoding:
      - gzip;q=1.0,deflate;q=0.6,identity;q=0.3
      Accept:
      - "*/*"
  response:
    status:
      code: 200
      message: OK
    headers:
      Date:
      - Mon, 05 Nov 2018 21:34:25 GMT
      Content-Type:
      - application/json
      Content-Length:
      - '1361'
      P3p:
      - policyref="https://policies.yahoo.com/w3c/p3p.xml", CP="CAO DSP COR CUR ADM
        DEV TAI PSA PSD IVAi IVDi CONi TELo OTPi OUR DELi SAMi OTRi UNRi PUBi IND
        PHY ONL UNI PUR FIN COM NAV INT DEM CNT STA POL HEA PRE LOC GOV"
      Cache-Control:
      - private
      X-Served-By:
      - www244.flickr.bf1.yahoo.com
      X-Frame-Options:
      - SAMEORIGIN
      Vary:
      - Accept-Encoding
      Age:
      - '0'
      Via:
      - http/1.1 fts109.flickr.bf1.yahoo.com (ApacheTrafficServer [cMsSf ]), http/1.1
        e4.ycpi.dnb.yahoo.com (ApacheTrafficServer [cMsSf ])
      Server:
      - ATS
      Referrer-Policy:
      - no-referrer-when-downgrade
      Connection:
      - keep-alive
      Strict-Transport-Security:
      - max-age=15552000
      Expect-Ct:
      - max-age=31536000, report-uri="http://csp.yahoo.com/beacon/csp?src=yahoocom-expect-ct-report-only"
      X-Xss-Protection:
      - 1; mode=block
      X-Content-Type-Options:
      - nosniff
      Public-Key-Pins-Report-Only:
      - max-age=2592000; pin-sha256="2fRAUXyxl4A1/XHrKNBmc8bTkzA7y4FB/GLJuNAzCqY=";
        pin-sha256="I/Lt/z7ekCWanjD0Cvj5EqXls2lOaThEA0H2Bg4BT/o="; pin-sha256="Wd8xe/qfTwq3ylFNd3IpaqLHZbh2ZNCLluVzmeNkcpw=";
        pin-sha256="WoiWRyIOVNa9ihaBciRSC7XHjliYS9VwUGOIud4PB18="; pin-sha256="i7WTqTvh0OioIruIfFR4kMPnBqrS2rdiVPl/s2uC/CY=";
        pin-sha256="r/mIkG3eEpVdm+u/ko/cwxzOMo1bk4TyHIlByibiA5E="; pin-sha256="uUwZgwDOxcBXrQcntwu+kYFpkiVkOaezL0WYEZ3anJc=";
        pin-sha256="dolnbtzEBnELx/9lOEQ22e6OZO/QNb6VSSX2XHA3E7A="; includeSubdomains;
        report-uri="http://csp.yahoo.com/beacon/csp?src=yahoocom-hpkp-report-only"
    body:
      encoding: ASCII-8BIT
      string: '{"photos":{"page":1,"pages":98,"perpage":20,"total":"1953","photo":[{"id":"31609280698","owner":"47224811@N00","secret":"46a2fc9372","server":"1939","farm":2,"title":"Coors
        Field - Denver, CO","ispublic":1,"isfriend":0,"isfamily":0},{"id":"45362347502","owner":"62007874@N00","secret":"56ef604e51","server":"1977","farm":2,"title":"Canada
        Geese, City Park, Denver","ispublic":1,"isfriend":0,"isfamily":0,"url_o":"https:\/\/farm2.staticflickr.com\/1977\/45362347502_55debf9422_o.jpg","height_o":"1024","width_o":"1536"},{"id":"44689497504","owner":"62007874@N00","secret":"04193ec9ac","server":"1920","farm":2,"title":"City
        Park Lake & Boathouse, Denver","ispublic":1,"isfriend":0,"isfamily":0,"url_o":"https:\/\/farm2.staticflickr.com\/1920\/44689497504_627bb8ef20_o.jpg","height_o":"996","width_o":"1494"},{"id":"45362346302","owner":"62007874@N00","secret":"0cf07a1105","server":"1944","farm":2,"title":"Lake
        and Skyline, City Park, Denver","ispublic":1,"isfriend":0,"isfamily":0,"url_o":"https:\/\/farm2.staticflickr.com\/1944\/45362346302_c2c1d3b576_o.jpg","height_o":"1024","width_o":"1536"},{"id":"44689496204","owner":"62007874@N00","secret":"7b4ebec143","server":"1961","farm":2,"title":"City
        Park and Skyline, Denver","ispublic":1,"isfriend":0,"isfamily":0,"url_o":"https:\/\/farm2.staticflickr.com\/1961\/44689496204_1bae8c8e75_o.jpg","height_o":"1024","width_o":"1536"},{"id":"45362345212","owner":"62007874@N00","secret":"2c7a8dd88a","server":"1910","farm":2,"title":"City
        Park, Denver","ispublic":1,"isfriend":0,"isfamily":0,"url_o":"https:\/\/farm2.staticflickr.com\/1910\/45362345212_bc1cc1a386_o.jpg","height_o":"1024","width_o":"1536"},{"id":"43525377690","owner":"20286982@N07","secret":"0eafed3e01","server":"1976","farm":2,"title":"Denver''s
        City Park","ispublic":1,"isfriend":0,"isfamily":0,"url_o":"https:\/\/farm2.staticflickr.com\/1976\/43525377690_249d43a5b8_o.jpg","height_o":"2387","width_o":"4530"},{"id":"45297959631","owner":"62007874@N00","secret":"e9056f2da4","server":"1942","farm":2,"title":"Cheesman
        Park Pavilion, Denver","ispublic":1,"isfriend":0,"isfamily":0,"url_o":"https:\/\/farm2.staticflickr.com\/1942\/45297959631_4e5e4acaec_o.jpg","height_o":"1009","width_o":"1514"},{"id":"45297956021","owner":"62007874@N00","secret":"cbc8390443","server":"1969","farm":2,"title":"Skyline
        from Cheesman Park, Denver","ispublic":1,"isfriend":0,"isfamily":0,"url_o":"https:\/\/farm2.staticflickr.com\/1969\/45297956021_0be8cb9e8b_o.jpg","height_o":"1024","width_o":"1536"},{"id":"44991494152","owner":"62007874@N00","secret":"27af2a4fc6","server":"1939","farm":2,"title":"Sculpture
        Garden, Downtown Denver","ispublic":1,"isfriend":0,"isfamily":0,"url_o":"https:\/\/farm2.staticflickr.com\/1939\/44991494152_8438f838fe_o.jpg","height_o":"1021","width_o":"1532"},{"id":"43883070724","owner":"62007874@N00","secret":"80ca0c6985","server":"1896","farm":2,"title":"Downtown
        Skyline from Civic Center, Denver, 2005","ispublic":1,"isfriend":0,"isfamily":0,"url_o":"https:\/\/farm2.staticflickr.com\/1896\/43883070724_87ac86bc75_o.jpg","height_o":"1015","width_o":"1523"},{"id":"44428402732","owner":"62007874@N00","secret":"bbc9a291f1","server":"1843","farm":2,"title":"City-County
        Building, Denver","ispublic":1,"isfriend":0,"isfamily":0,"url_o":"https:\/\/farm2.staticflickr.com\/1843\/44428402732_cdd6324efa_o.jpg","height_o":"1024","width_o":"1536"},{"id":"43568460575","owner":"62007874@N00","secret":"fb546db1bd","server":"1865","farm":2,"title":"Colorado
        State Capitol and Vietnam War Memorial, Denver","ispublic":1,"isfriend":0,"isfamily":0,"url_o":"https:\/\/farm2.staticflickr.com\/1865\/43568460575_c0600b5cfa_o.jpg","height_o":"1024","width_o":"1536"},{"id":"44428400352","owner":"62007874@N00","secret":"7c432f1f48","server":"1845","farm":2,"title":"Colorado
        State Capitol from Civic Center, Denver","ispublic":1,"isfriend":0,"isfamily":0,"url_o":"https:\/\/farm2.staticflickr.com\/1845\/44428400352_19e5478fa0_o.jpg","height_o":"1024","width_o":"1536"},{"id":"44289851702","owner":"9889112@N02","secret":"686ef5c105","server":"1893","farm":2,"title":"Shining
        Through","ispublic":1,"isfriend":0,"isfamily":0,"url_o":"https:\/\/farm2.staticflickr.com\/1893\/44289851702_db747b1784_o.jpg","height_o":"900","width_o":"1600"},{"id":"29330330807","owner":"68905946@N04","secret":"9b492195fb","server":"1865","farm":2,"title":"pegion
        feeder","ispublic":1,"isfriend":0,"isfamily":0},{"id":"27827556507","owner":"76475621@N00","secret":"ae237512f3","server":"1726","farm":2,"title":"Landscaping
        boulders on a lawn, at a comfortable distance from an area of contemporary
        residential.","ispublic":1,"isfriend":0,"isfamily":0},{"id":"42696631091","owner":"76475621@N00","secret":"b9896c39c4","server":"1747","farm":2,"title":"A
        brown lawn of turfgrass.","ispublic":1,"isfriend":0,"isfamily":0},{"id":"41872222142","owner":"98064488@N05","secret":"7fbee439d4","server":"981","farm":1,"title":"Denver
        Art Museum","ispublic":1,"isfriend":0,"isfamily":0},{"id":"39596447214","owner":"13595696@N07","secret":"f101f68116","server":"4746","farm":5,"title":"New
        photo added to \"All Photos\"","ispublic":1,"isfriend":0,"isfamily":0,"url_o":"https:\/\/farm5.staticflickr.com\/4746\/39596447214_6308bd1866_o.jpg","height_o":"3024","width_o":"4032"}]},"stat":"ok"}'
    http_version: 
  recorded_at: Mon, 05 Nov 2018 21:34:25 GMT
recorded_with: VCR 4.0.0
